NA-pad blink events / missing data — deblink • eyeris
…
if (FALSE) { # \dontrun{
system.file("extdata", "assocret.asc", package = "eyeris") |>
  eyeris::load_asc() |>
  eyeris::deblink(extend = 40) # 40 ms in both directions
} # }

system.file("extdata", "assocret.asc", package = "eyeris") |>
  eyeris::load_asc() |>
  eyeris::deblink(extend = c(40, 50)) # 40 ms backward, 50 ms forward
#> $file
#> [1] "/opt/homebrew/lib/R/4.4/site-library/eyeris/extdata/assocret.asc"
#> 
#> $timeseries
#> # A tibble: 22,145 × 8
#>    time_orig eye_x eye_y eye      hz type     pupil_raw pupil_raw_deblink
#>        <int> <dbl> <dbl> <chr> <dbl> <chr>        <dbl>             <dbl>
#>  1  11242177  949.  646. R      1000 diameter      6174              6174
#>  2  11242178  947.  644. R      1000 diameter      6176              6176
#>  3  11242179  946.  643  R      1000 diameter      6178              6178
#>  4  11242180  945.  642  R      1000 diameter      6179              6179
#>  5  11242181  945.  641. R      1000 diameter      6180              6180
#>  6  11242182  945.  642. R      1000 diameter      6182              6182
#>  7  11242183  945.  644. R      1000 diameter      6187              6187
#>  8  11242184  945.  644. R      1000 diameter      6197              6197
#>  9  11242185  945.  643. R      1000 diameter      6207              6207
#> 10  11242186  945.  642. R      1000 diameter      6203              6203
#> # ℹ 22,135 more rows
#> 
#> $events
#> # A tibble: 67 × 3
#>    block     time text                      
#>    <dbl>    <dbl> <chr>                     
#>  1     1 11242177 !MODE RECORD CR 1000 2 1 R
#>  2     1 11243349 EXP_START                 
#>  3     1 11243355 TRIALID 0                 
#>  4     1 11243356 START_TRIAL_0             
#>  5     1 11243356 CUE_START_0               
#>  6     1 11244328 CUE_STOP_0                
#>  7     1 11244329 DELAY_START_0             
#>  8     1 11245337 DELAY_STOP_0              
#>  9     1 11245338 PROBE_START_0             
#> 10     1 11245956 RESPONSE_0                
#> # ℹ 57 more rows
…
