Epoch (and baseline) pupil data based on custom event message structure — epoch • eyeris
…
eye_preproc |>
  eyeris::epoch(events = "PROBE*", limits = c(-1, 1))
#> $file
#> [1] "/Users/shawn/work/eyeris/inst/extdata/assocret.asc"
#> 
#> $timeseries
#> # A tibble: 22,145 × 11
#>    time_orig eye_x eye_y eye      hz type     pupil_raw pupil_raw_deblink
#>        <int> <dbl> <dbl> <chr> <dbl> <chr>        <dbl>             <dbl>
#>  1  11242177  949.  646. R      1000 diameter      6174              6174
#>  2  11242178  947.  644. R      1000 diameter      6176              6176
#>  3  11242179  946.  643  R      1000 diameter      6178              6178
#>  4  11242180  945.  642  R      1000 diameter      6179              6179
#>  5  11242181  945.  641. R      1000 diameter      6180              6180
#>  6  11242182  945.  642. R      1000 diameter      6182              6182
#>  7  11242183  945.  644. R      1000 diameter      6187              6187
#>  8  11242184  945.  644. R      1000 diameter      6197              6197
#>  9  11242185  945.  643. R      1000 diameter      6207              6207
#> 10  11242186  945.  642. R      1000 diameter      6203              6203
#> # ℹ 22,135 more rows
#> # ℹ 3 more variables: pupil_raw_deblink_detransient <dbl>,
#> #   pupil_raw_deblink_detransient_lpfilt <dbl>,
#> #   pupil_raw_deblink_detransient_lpfilt_z <dbl>
#> 
#> $events
#> # A tibble: 67 × 3
#>    block     time text                      
#>    <dbl>    <dbl> <chr>                     
#>  1     1 11242177 !MODE RECORD CR 1000 2 1 R
#>  2     1 11243349 EXP_START                 
#>  3     1 11243355 TRIALID 0                 
#>  4     1 11243356 START_TRIAL_0             
#>  5     1 11243356 CUE_START_0               
#>  6     1 11244328 CUE_STOP_0                
#>  7     1 11244329 DELAY_START_0             
#>  8     1 11245337 DELAY_STOP_0              
#>  9     1 11245338 PROBE_START_0             
#> 10     1 11245956 RESPONSE_0                
#> # ℹ 57 more rows
…
#> # ℹ 5 variables: block <int>, stime <dbl>, etime <dbl>, dur <dbl>, eye <fct>
#> 
#> $info
#>                  date        model version sample.rate   cr  left right mono
#> 1 2009-01-11 02:40:47 EyeLink 1000   4.594        1000 TRUE FALSE  TRUE TRUE
#>   screen.x screen.y                                 mount filter.level
#> 1     1920     1080 Desktop / Monocular / Head Stabilized            2
#>   sample.dtype event.dtype pupil.dtype velocity resolution htarg input buttons
#> 1         GAZE        GAZE    DIAMETER    FALSE      FALSE FALSE FALSE   FALSE
#> 
#> $latest
#> [1] "pupil_raw_deblink_detransient_lpfilt_z"
#> 
#> $epoch_probe
#> # A tibble: 20,000 × 16
#>    time_orig timebin eye_x eye_y eye      hz type    pupil_raw pupil_raw_deblink
#>        <int>   <dbl> <dbl> <dbl> <chr> <dbl> <chr>       <dbl>             <dbl>
#>  1  11244338 0        972.  562. R      1000 diamet…      5837              5837
#>  2  11244339 0.00100  971.  563. R      1000 diamet…      5853              5853
#>  3  11244340 0.00200  970.  562. R      1000 diamet…      5871              5871
#>  4  11244341 0.00300  969.  562. R      1000 diamet…      5873              5873
#>  5  11244342 0.00400  971.  562. R      1000 diamet…      5878              5878
#>  6  11244343 0.00500  972.  562. R      1000 diamet…      5883              5883
#>  7  11244344 0.00600  971.  561. R      1000 diamet…      5883              5883
#>  8  11244345 0.00700  970.  559. R      1000 diamet…      5877              5877
#>  9  11244346 0.00800  970.  558. R      1000 diamet…      5876              5876
#> 10  11244347 0.00900  969.  557. R      1000 diamet…      5881              5881
#> # ℹ 19,990 more rows
#> # ℹ 7 more variables: pupil_raw_deblink_detransient <dbl>,
#> #   pupil_raw_deblink_detransient_lpfilt <dbl>,
#> #   pupil_raw_deblink_detransient_lpfilt_z <dbl>, template <chr>,
#> #   matching_pattern <chr>, matched_event <chr>, event_message <chr>
#> 
#> attr(,"class")
#> [1] "eyeris"

eye_preproc |>
  eyeris::epoch(events = "TRIALID {trial}") # all samples between each trial
#> $file
#> [1] "/Users/shawn/work/eyeris/inst/extdata/assocret.asc"
#> 
#> $timeseries
#> # A tibble: 22,145 × 11
#>    time_orig eye_x eye_y eye      hz type     pupil_raw pupil_raw_deblink
#>        <int> <dbl> <dbl> <chr> <dbl> <chr>        <dbl>             <dbl>
#>  1  11242177  949.  646. R      1000 diameter      6174              6174
#>  2  11242178  947.  644. R      1000 diameter      6176              6176
#>  3  11242179  946.  643  R      1000 diameter      6178              6178
#>  4  11242180  945.  642  R      1000 diameter      6179              6179
#>  5  11242181  945.  641. R      1000 diameter      6180              6180
#>  6  11242182  945.  642. R      1000 diameter      6182              6182
#>  7  11242183  945.  644. R      1000 diameter      6187              6187
#>  8  11242184  945.  644. R      1000 diameter      6197              6197
#>  9  11242185  945.  643. R      1000 diameter      6207              6207
#> 10  11242186  945.  642. R      1000 diameter      6203              6203
#> # ℹ 22,135 more rows
#> # ℹ 3 more variables: pupil_raw_deblink_detransient <dbl>,
#> #   pupil_raw_deblink_detransient_lpfilt <dbl>,
#> #   pupil_raw_deblink_detransient_lpfilt_z <dbl>
#> 
#> $events
#> # A tibble: 67 × 3
#>    block     time text                      
#>    <dbl>    <dbl> <chr>                     
#>  1     1 11242177 !MODE RECORD CR 1000 2 1 R
#>  2     1 11243349 EXP_START                 
#>  3     1 11243355 TRIALID 0                 
#>  4     1 11243356 START_TRIAL_0             
#>  5     1 11243356 CUE_START_0               
#>  6     1 11244328 CUE_STOP_0                
#>  7     1 11244329 DELAY_START_0             
#>  8     1 11245337 DELAY_STOP_0              
#>  9     1 11245338 PROBE_START_0             
#> 10     1 11245956 RESPONSE_0                
#> # ℹ 57 more rows
…
#> # ℹ 5 variables: block <int>, stime <dbl>, etime <dbl>, dur <dbl>, eye <fct>
#> 
#> $info
#>                  date        model version sample.rate   cr  left right mono
#> 1 2009-01-11 02:40:47 EyeLink 1000   4.594        1000 TRUE FALSE  TRUE TRUE
#>   screen.x screen.y                                 mount filter.level
#> 1     1920     1080 Desktop / Monocular / Head Stabilized            2
#>   sample.dtype event.dtype pupil.dtype velocity resolution htarg input buttons
#> 1         GAZE        GAZE    DIAMETER    FALSE      FALSE FALSE FALSE   FALSE
#> 
#> $latest
#> [1] "pupil_raw_deblink_detransient_lpfilt_z"
#> 
#> $epoch_trialidTrial
#> # A tibble: 20,952 × 16
#>    time_orig timebin eye_x eye_y eye      hz type    pupil_raw pupil_raw_deblink
#>        <int>   <dbl> <dbl> <dbl> <chr> <dbl> <chr>       <dbl>             <dbl>
#>  1  11243355 0        971   569. R      1000 diamet…      6573              6573
#>  2  11243356 0.00100  972.  569. R      1000 diamet…      6574              6574
#>  3  11243357 0.00200  972.  570. R      1000 diamet…      6564              6564
#>  4  11243358 0.00300  972.  570. R      1000 diamet…      6554              6554
#>  5  11243359 0.00400  971.  569. R      1000 diamet…      6548              6548
#>  6  11243360 0.00500  969.  568. R      1000 diamet…      6550              6550
#>  7  11243361 0.00600  968.  568. R      1000 diamet…      6550              6550
#>  8  11243362 0.00700  969   568. R      1000 diamet…      6549              6549
#>  9  11243363 0.00800  970.  568. R      1000 diamet…      6550              6550
#> 10  11243364 0.00900  970.  568. R      1000 diamet…      6552              6552
#> # ℹ 20,942 more rows
#> # ℹ 7 more variables: pupil_raw_deblink_detransient <dbl>,
#> #   pupil_raw_deblink_detransient_lpfilt <dbl>,
#> #   pupil_raw_deblink_detransient_lpfilt_z <dbl>, template <chr>,
#> #   matching_pattern <chr>, matched_event <chr>, trial <chr>
…
